
{
    "Servers":
    [
	{
	    "Address": "irc.swehack.org:6697",
	    "SSL": true,
	    "InsecureSSL": true,
	    "EnableTitle": false,
	    "Channels": ["#laidback", "#fuckmedaddy"],
	    "Realname": "user",
	    "Nickname": "Julia-NG",
	    "Prefix": ".",
	    "Version": "Juliav2.0",
	    "Ignores": ["per", "red", "oskar"]
	}
    ],
    "SimpleResponders":
    [
	{
	    "Trigger": "räf",
	    "Responses":
	    [
		"jag vill känna långlivad organisk glädje och lyfta denna förbannelsen",
		"du måste stirra in i denna kuben och FÖRSTÅ",
		"jag visar dig de otänkbra!!",
		"jag är ett hungerigt barn",
		"mitt liv är i förödelse",
		"kompster",
		"skåda den starkaste mjuk öra någonsin",
		"ok kompis det är bara du och jag",
		"han kommer bli en stark pojke",
		"glad jlu",
		"välkommen till sceniskt räfland",
		"vi har tassar,vi har äpple",
		"vad mer kan man begära",
		"kryddig het räf",
		"förståeligt",
		"den sista biten",
		"jag ser, i den vacker dröm",
		"jag vaknar, och har glömt",
		"någonting fattas",
		"inge tålamod",
		"när jag var hälften som du, var jag så här liten",
		"men dubbelt utav mig är inte som nu",
		"hej, jag är spöke som är efter din själ",
		"kan vi bli vän",
		"det är för riskabelt",
		"okej nu är det bara du och jag",
		"jag representerar denna världens hopp",
		"förtälj om din vishet",
		"jag är faktiskt bara liten",
		"nu går vi och spökar en kamrat",
		"tystnad mina barn",
		"jag bringar er en fest",
		"vilken förtjusande melodi",
		"jag äger tre flöjter",
		"tut",
		"jag flyter förbi med goda nyheter",
		"wow vad är det",
		"jag har upptäckt meningen",
		"meningen till vad",
		"mysterium",
		"absolut icke",
		"???",
		"!!!",
		"löf i mund dialekt",
		"ånga i ansikte dialekt",
		"varför gör du detta mot mig",
		"har du övervägt läg1man1",
		"vad är läg1man1",
		"gratulationer",
		"jag spökar ditt förflutet",
		"jag spökar ditt nuvarande",
		"jag !! spökar nästan",
		"jag vill inte spräcka din bubbla men",
		"boop",
		"tjena vänner kolla in denna ljuvliga bläckfisgen",
		"håll denna vännen",
		"fantastiskt",
		"nu kan vi observera gatorn medans den förföljer sitt byte",
		"den kommer mumsa!!",
		"mums",
		"låt oss diskutera alla våra kunskaper och planer",
		"vänta tyst!!",
		"å nej",
		"wow det finns så många vacker klänning",
		"vilken ska jag välja",
		"ursäkta, det inte okej, beep och boop passar inte",
		"är du ok",
		"fixa",
		"T A C K  F Ö R  A T T  D U  L O G G A D E  I N",
		"det är det enda sättet att hitta marshmeln",
		"min skapare vi har funnit",
		"det är fantastiskt",
		"synnerligen, helt säkert",
		"ojsan vad är det där",
		"nyoom",
		"ooooooooooooooooooooooooooooooooooooo",
		"det jag, jag är molnet, titta: fhu~",
		"fhu~",
		"låt mig berätta, vän, jag vet vad det",
		"tassfluff",
		"vänta det är inte längre ok",
		"bort från mig hunde, jag är ASFALT",
		"är du någonlunda kylig vill du ha en halsduk",
		"denna är till dig",
		"jag är en riktig hiss!!",
		"ok farväl vän",
		"nyoom",
		"låt oss gifta oss!!",
		"ok!!",
		"vi är gifta nu!!",
		"ja!!",
		"låt oss gå till djurparken!",
		"hurra!",
		"återkom nästa år",
		"låt oss bygga en snövän",
		"hm behöver en lite något av krydda upp det",
		"god morgon spöke",
		"gäsp och                        sträck",
		"hua!!!",
		"jag har ingenting för dig 🎉",
		"hur ska jag ens försöka",
		"men nu är jag trött",
		"splittra gävryte",
		"inte menar du rävgryte",
		"r ä f i g t  ute",
		"iNtE öVrErAkSa",
		"tänk om jag räf egentligen",
		"nedrans räfar",
		"statsminist snälla",
		"ditt hinkförsvar är: Ganska Bra",
		"hej räfar jag är en teknikalitet"
	    ],
	    "MessageType": "PRIVMSG"
	},
	{
	    "Trigger": "vape",
	    "Responses":
	    [
		"### \\//\\/ REPRESENT YAOO ###",
		"-== VAPE NATION REPRESENT ==-",
		"~~~VAPE NATION~~~",
		"VEJPNATIONEN",
		"$$$ \\/ TO THE /\\/ $$$",
		"!!! FUCK YEAAA VAPE NATION !!!",
		"ᴠᴀᴘᴇɴᴀᴛɪᴏɴ",
		"ＶＡＰＥＮＡＴＩＯＮ"
	    ],
	    "MessageType": "PRIVMSG"
	},
	{
	    "Trigger": "kattljud",
	    "Responses":
	    [
		"mew",
		"meow",
		"mrawr",
		"rawr",
		"rar",
		"mrowr",
		"rwr",
		"mrw",
		"mrwrw",
		"mjau",
		"miao",
		"MJAU.",
		"mrr",
		"mjau mjau"
	    ],
	    "MessageType": "PRIVMSG"
	},
	{
	    "Trigger": "hellseger",
	    "Responses":
	    [
		"Klas \"Ajöken, ökenfröken!\" Lund",
		"Klas \"Bemöter hula-hula med dumdumkula\" Lund",
		"Klas \"Beväpna germanderna, nu intar vi skanderna\" Lund",
		"Klas \"Blixt & Dunder inte Banker & Kunder\" Lund",
		"Klas \"Blodad tand för nordiskt land\" Lund",
		"Klas \"Bottenlöst hat mot kalifat\" Lund",
		"Klas \"Bryt dig fri från skuld - sno en judes guld\" Lund",
		"Klas \"Demokrati är hyckleri\" Lund",
		"Klas \"Dränk en bankman i en ankdamm\" Lund",
		"Klas \"En nordisk renässans krossar judens storfinans\" Lund",
		"Klas \"En nordisk union är min vision\" Lund",
		"Klas \"Fjorton åttioåtta, gasa en zigenarråtta\" Lund",
		"Klas \"Framgent blir Sverige homogent\" Lund",
		"Klas \"Genant att vara släkt med en migrant\" Lund",
		"Klas \"Gör profit på att vara antisemit\" Lund",
		"Klas \"Grov patron för semitisk religion\" Lund",
		"Klas \"Grov patron mot semitisk religion\" Lund",
		"Klas \"Gul, brun, svart eller röd, efter raskriget är du död\" Lund",
		"Klas \"Hell seger, häng en neger\" Lund",
		"Klas \"Hell seger, gasa en neger\" Lund",
		"Klas \"Hyperboreas kall blir västvärldens fall\" Lund",
		"Klas \"Ingen degeneration i vår nordiska federation\" Lund",
		"Klas \"Ingen frid för negroid individ\" Lund",
		"Klas \"Juden står böjd, för flaggan på höjd, nu är jag nöjd\" Lund",
		"Klas \"Kalabalik baserad på euganik\" Lund",
		"Klas \"Laddad AK-47 väntar på HBTQ\" Lund",
		"Klas \"Makt åt norden, lägg juden i jorden\" Lund",
		"Klas \"Man bestiger ingen klippa i kippa\" Lund",
		"Klas \"Med blodad klo mot NWO\" Lund",
		"Klas \"Med kniv mot Tel Aviv\" Lund",
		"Klas \"Migration med båt slutar i gråt\" Lund",
		"Klas \"Oden har orden i Norden\" Lund",
		"Klas \"Överflöd av bråd död\" Lund",
		"Klas \"Rasfrämling ger dålig stämning\" Lund",
		"Klas \"Rasren skurk dödar varenda turk\" Lund",
		"Klas \"Rätt hudfärg för att klättra i berg\" Lund",
		"Klas \"Rätt ras, annars gas\" Lund",
		"Klas \"Sätter ryssen i abyssen\" Lund",
		"Klas \"Schäferhund har kurd i mund\" Lund",
		"Klas \"Skinnflå en eskimå\" Lund",
		"Klas \"Skyddar förhuden från Bonnierjuden\" Lund",
		"Klas \"Slå ett slag för repets dag\" Lund",
		"Klas \"Stångar hornet mot de som kraschade in i WTC-tornet\" Lund",
		"Klas \"Ta och tig, nu är dax för rasligt krig\" Lund",
		"Klas \"Tor är min storebror\" Lund",
		"Klas \"Total banzai mot alla Thai\" Lund",
		"Klas \"Utländsk mat? Smaka vårt hat\" Lund",
		"Klas \"Vit man sätter bonnier i brand\" Lund",
		"Klas \"Zion får smällen, sen bestiger vi fjällen\" Lund",
		"Klas \"Förgiftat vin åt semitiska svin\" Lund"
	    ],
	    "MessageType": "PRIVMSG"
	},
	{
	    "Trigger": "HJÄLP",
	    "Responses":
	    [
		"https://www.hitta.se/psykoterapi+och+psykiatri+dr+bo-g%C3%B6ran+knutes/stockholm/hLS244nnU1",
		"https://www.svenskakyrkan.se/jourhavandeprast",
		"https://www.1177.se/Tema/Psykisk-halsa/Soka-vard-och-hjalp/Soka-vard/Jourtelefoner-och-radgivning/",
		"skicka ett PRIVMSG till chloe, hon vet",
		"https://www.svenskakyrkan.se/goteborg/kyrkansjourtjanst",
		"http://preventell.se/",
		"http://spes.se/",
		"http://www.redcross.se/kontakt/telefon-och-chattjour/",
		"https://mind.se/sjalvmordslinjen/chatt/",
		"https://mind.se/aldretelefonen/",
		"https://www.bris.se/",
		"fråga butkus, han har lösning på problem",
		"https://www.advokatsamfundet.se/Behover-du-advokat/Advokatjouren/",
		"http://www.juristjouren.se/",
		"ringer 112 åt dig",
		"inte lönt,ringer likbil",
		"skickar blommers",
		"sätter blommor på din grav sen",
		"ta en snus och sträck på dig",
		"http://www.brottsofferjouren.se/",
		"https://www.telia.se/privat/support/info/uppsagning-av-abonnemang"
	    ],
	    "MessageType": "PRIVMSG"
	},
	{
	    "Trigger": "hjälp",
	    "Responses": ["Tillgängliga kommandon: hjälp, HJÄLP, räf, vape, kattljud, hellseger, per, morn, lotto, butkus, title, diagnos <mentalpatient>, knarka <medmänniska>, älska <sötnos>, mörda <offer>, spotta <offer>, bestäm <eller-separerad lista>, väder <stad>"],
	    "MessageType": "PRIVMSG"
	}
    ],
    "CombineResponders":
    [
	{
	    "Trigger": "mörda",
	    "Components":
	    [
		[
		    "isar",
		    "cuttar",
		    "misshandlar",
		    "spräcker",
		    "dränker",
		    "klyver",
		    "maler",
		    "kväver",
		    "stryper",
		    "åderlåter",
		    "kokar",
		    "pastöriserar"
		],
		[
		    "hårt",
		    "mjukt",
		    "försiktigt",
		    "med glimten i ögat",
		    "med ett mordiskt vrål",
		    "med en tår i ögat",
		    "naken",
		    "med ett maniskt skratt",
		    "medans Klas Lund tittar på",
		    "ute i skogen",
		    "med enbart en halsduk på sig"
		]
	    ],
	    "UserIndex": 1,
	    "MessageType": "ACTION"

	},
	{
	    "Trigger": "älska",
	    "Components":
	    [
		[
		    "pussar",
		    "slickar",
		    "gosar",
		    "smeker",
		    "lindar armarna om",
		    "kramar",
		    "klappar",
		    "myser",
		    "sniffar",
		    "nafsar",
		    "gnuggar",
		    "eskimåkysser"
		],
		[
		    "försiktigt",
		    "mjukt",
		    "hårt",
		    "lugnt",
		    "hjärtfyllt",
		    "älskande",
		    "varmt",
		    "gulligt",
		    "lyckligt"
		],
		["♥"]
	    ],
	    "UserIndex": 1,
	    "MessageType": "ACTION"
	},
	{
	    "Trigger": "per",
	    "Components":
	    [
		[
		    "sprutskiter",
		    "bajsar",
		    "kastar skit",
		    "kräks",
		    "kanonbajsar",
		    "spottar bajs",
		    "kletar bajs",
		    "kissar",
		    "fiser",
		    "hostar bajs",
		    "spottar skit"
		],
		[
		    "på",
		    "mot"
		],
		[
		    "taket",
		    "stolen",
		    "skärmen",
		    "golvet",
		    "datorn",
		    "bänken",
		    "skrivbordet",
		    "chloe",
		    "grannen",
		    "mig själv",
		    "alla flash-XSSer som någonsin hittats",
		    "alla som gillar family guy",
		    "alla u-länder",
		    "äldreboendets fönster",
		    "kyrkporten",
		    "alla som är dumma nog att skaffa barn",
		    "pentagramet jag kissade i snön",
		    "sql-injektionerna som butkus hittade",
		    "hela jävla swehack"
		]
	    ],
	    "UserIndex": -1,
	    "MessageType": "ACTION"
	},
	{
	    "Trigger": "morn",
	    "Components":
	    [
		[
		    "morn"
		],
		[
		    "kaffe",
		    "senap",
		    "ärtor",
		    "knark",
		    "jesus",
		    "MAMMA",
		    "köttbullar",
		    "aliens",
		    "små rymdgubbar",
		    "demoner",
		    "mina demoner",
		    "pers demoner",
		    "kebab",
		    "läsk",
		    "sockerdricka",
		    "rödvin",
		    "kaffe",
		    "citronbitare",
		    "potatos",
		    "potatosmos",
		    "tzot",
		    "kosttillskott",
		    "presenter",
		    "paket",
		    "sqli",
		    "horsepower",
		    "HORSEPOWER",
		    "stearinljus",
		    "böcker",
		    "husdjur",
		    "vinterjackan",
		    "tandborste",
		    "tandkräm",
		    "munskölj",
		    "toapapper",
		    "stekspade",
		    "elwisp",
		    "wisp",
		    "ostpizza",
		    "pizza",
		    "erotica",
		    "erotik"
		],
		[
		    "finns"
		],
		[
		    "på taket",
		    "på stolen",
		    "under stolen",
		    "på golvet",
		    "på datorn",
		    "på bänken",
		    "under skrivbordet",
		    "i chloe",
		    "hos grannen",
		    "i kaffekoppen",
		    "i kylen",
		    "på vinden",
		    "hos dem som frågar",
		    "i badrumsskåpet",
		    "i kyrkan",
		    "på förskolan",
		    "på dagis",
		    "hemma hos per",
		    "i skålen",
		    "i hallen",
		    "i blodomloppet",
		    "i flaskan",
		    "på toasitsen",
		    "under golvbrädorna",
		    "under mattan",
		    "på hårddisken",
		    "i fåtöljen",
		    "i tyskland",
		    "i sundsvall",
		    "hemma hos chloe",
		    "inuti per",
		    "i winglaset"
		]
	    ],
	    "UserIndex": -1,
	    "MessageType": "PRIVMSG"
	}

    ],
    "NamedResponders":
    [
	{
	    "Trigger": "diagnos",
	    "MessageType": "PRIVMSG",
	    "Responses":
	    [
		"%s har diagnosen: ADHD",
		"%s har diagnosen: ADD",
		"%s har diagnosen: Rasist",
		"%s har diagnosen: Kommunist",
		"%s har diagnosen: NFED",
		"%s har diagnosen: auts",
		"%s har diagnosen: sperg",
		"%s har diagnosen: alkoholist",
		"%s har diagnosen: galen helt enkelt",
		"%s har diagnosen: CP",
		"%s har diagnosen: clown",
		"%s har diagnosen: gal1 man",
		"%s har diagnosen: högerextremist",
		"%s har diagnosen: dödsknarkarrasist",
		"%s har diagnosen: knarkarnazist",
		"%s har diagnosen: brutalt sprättad buk",
		"%s har diagnosen: knarkare",
		"%s har diagnosen: pundare",
		"%s har diagnosen: auts som fan",
		"%s har diagnosen: räf!!",
		"%s har diagnosen: farlig för barn och gravida kvinnor",
		"%s har diagnosen: damp",
		"%s har diagnosen: elefantpung"
	    ]
	},
	{
	    "Trigger": "knarka",
	    "MessageType": "ACTION",
	    "Responses":
	    [
		"inhalerar ett ogräs tillsammans med %s",
		"skickar bruningen till %s",
		"tänder på holken stor som ett brännbollsträ och blåser moln på %s",
		"suttar på raketen och skickar den till %s efter två bloss",
		"skjuter häst i famnen på %s",
		"drar en lina och skickar spegeln till %s",
		"tänder på och skickar hövdingen till %s",
		"utforskar rymden tillsammans med %s",
		"smyger ner lite lyrica i %s's kaffemugg",
		"sätter fyr på fyra kilo dödsknark hon hittade hos %s",
		"äter knark med %s",
		"%s, ey, skicka tändaren bror",
		"vaknar och bakar med %s",
		"injicerar DMT i ögonlocket på %s",
		"RPar dex hemma hos %s",
		"häller tjack i %s's kaffekopp",
		"sjunker ihop med %s",
		"blir ett med %s",
		"noddar av tillsammans med %s",
		"bensar ner sig totalt hos %s",
		"bjuder %s på ett frimärke syra",
		"bjuder %s på en karta bens"
	    ]
	},
	{
	    "Trigger": "spotta",
	    "MessageType": "ACTION",
	    "Responses":
	    [
		"spottar %s i nyllet",
		"harklar upp en rejäl snorloska och spottar den i fejjan på %s",
		"samlar saliv i munnen i en kvart och dränker %s med processerat spott",
		"dricker ett glas mjölk och spottar vitt på %s",
		"silar spott i gluggen mellan framtänderna och skjuter en sylvass spottstråle på %s",
		"samlar gänget i en ring runt %s och spottar",
		"gurglar köttfärssås och spottar det på %s",
		"hatspottar %s i håret"
	    ]
	}
    ]
}
